Cantidad Elementos,Tiempo Promedio segundos
10000,0.0020192351000000008
20000,0.004724543040000001
30000,0.008395787639999997
40000,0.012415648619999997
50000,0.017373348179999998
60000,0.02255736386
70000,0.02885913822
80000,0.034423555219999985
90000,0.04182181828
100000,0.04896958654
200000,0.15039995254000005
300000,0.2955273078999999
400000,0.47090184568000004
500000,0.70176000252
600000,0.9745971998600002
700000,1.2708636050199997
800000,1.6975064917599996
900000,2.01570212044
1000000,2.47119039124
